results/async_fifo_waveform.vcd
$date
   Thu Jul  9 19:08:11 2026
$end
$version
  2022.2
$end
$timescale
  1ps
$end
$scope module tb_async_fifo $end
$var reg 1 ! wclk $end
$var reg 1 " rclk $end
$var reg 1 # rst_n $end
$var reg 1 $ wr_en $end
$var reg 1 % rd_en $end
$var reg 8 & wr_data [7:0] $end
$var reg 1 ' full $end
$var reg 1 ( almost_full $end
$var reg 1 ) stall $end
$var reg 1 * empty $end
$var reg 1 + rd_valid $end
$var reg 8 , rd_data [7:0] $end
$var reg 5 - wr_occupancy [4:0] $end
$var reg 32 . total_writes_accepted [31:0] $end
$var reg 32 / total_reads_valid [31:0] $end
$var reg 32 0 mismatch_count [31:0] $end
$var reg 32 1 max_occupancy [31:0] $end
$var reg 32 2 full_assert_count [31:0] $end
$var reg 32 3 almost_full_assert_count [31:0] $end
$var reg 32 4 empty_assert_count [31:0] $end
$var reg 1 5 prev_full $end
$var reg 1 6 prev_afull $end
$var reg 1 7 prev_empty $end
$var reg 1 8 prev_afull_log $end
$var reg 32 9 prev_occ [31:0] $end
$var reg 32 : sb $end
$var reg 8 ; expected [7:0] $end
$var wire 1 < wr_accept $end
$var wire 1 = wrap_event $end
$var wire 1 > wr_rd_same $end
$var reg 1 ? run_wr_rand $end
$var reg 1 @ run_rd_rand $end
$var reg 1 A run_slow_read $end
$var reg 32 B rand_cycles [31:0] $end
$var reg 32 C slow_cnt [31:0] $end
$scope module dut $end
$var wire 1 D rst_n $end
$var wire 1 E wclk $end
$var wire 1 F wr_en $end
$var wire 8 G wr_data [7:0] $end
$var wire 1 H full $end
$var wire 1 I almost_full $end
$var wire 1 J stall $end
$var wire 5 K wr_occupancy [4:0] $end
$var wire 1 L rclk $end
$var wire 1 M rd_en $end
$var wire 8 N rd_data [7:0] $end
$var wire 1 O rd_valid $end
$var wire 1 P empty $end
$var wire 1 Q wrst_n_sync $end
$var wire 1 R rrst_n_sync $end
$var wire 5 S wptr_bin [4:0] $end
$var wire 5 T wptr_gray [4:0] $end
$var wire 5 U rptr_bin [4:0] $end
$var wire 5 V rptr_gray [4:0] $end
$var wire 5 W wptr_gray_sync [4:0] $end
$var wire 5 X rptr_gray_sync [4:0] $end
$var wire 1 Y wr_en_gated $end
$var wire 1 Z rd_en_gated $end
$scope module u_wrst $end
$var wire 1 E clk $end
$var wire 1 D async_rst_n $end
$var wire 1 Q sync_rst_n $end
$var reg 2 [ sync_chain [1:0] $end
$upscope $end
$scope module u_rrst $end
$var wire 1 L clk $end
$var wire 1 D async_rst_n $end
$var wire 1 R sync_rst_n $end
$var reg 2 \ sync_chain [1:0] $end
$upscope $end
$scope module u_wptr_full $end
$var wire 1 E wclk $end
$var wire 1 Q wrst_n_sync $end
$var wire 1 F wr_en $end
$var wire 5 X rptr_gray_sync [4:0] $end
$var wire 5 S wptr_bin [4:0] $end
$var wire 5 T wptr_gray [4:0] $end
$var reg 1 ] full $end
$var wire 5 K wr_occupancy [4:0] $end
$var wire 1 ^ wen $end
$var wire 5 _ wbin_next [4:0] $end
$var wire 5 ` wgray_next [4:0] $end
$var wire 1 a is_full $end
$var wire 5 b rptr_bin_sync [4:0] $end
$scope module u_wcnt $end
$var wire 1 E clk $end
$var wire 1 Q rst_n $end
$var wire 1 ^ en $end
$var reg 5 c bin_out [4:0] $end
$var reg 5 d gray_out [4:0] $end
$var wire 5 e bin_next [4:0] $end
$var wire 5 f gray_next [4:0] $end
$upscope $end
$scope module u_g2b $end
$var wire 5 X gray_in [4:0] $end
$var wire 5 b bin_out [4:0] $end
$upscope $end
$upscope $end
$scope module u_rptr_empty $end
$var wire 1 L rclk $end
$var wire 1 R rrst_n_sync $end
$var wire 1 M rd_en $end
$var wire 5 W wptr_gray_sync [4:0] $end
$var wire 5 U rptr_bin [4:0] $end
$var wire 5 V rptr_gray [4:0] $end
$var reg 1 g empty $end
$var wire 1 h ren $end
$var wire 5 i rbin_next [4:0] $end
$var wire 5 j rgray_next [4:0] $end
$var wire 1 k is_empty $end
$scope module u_rcnt $end
$var wire 1 L clk $end
$var wire 1 R rst_n $end
$var wire 1 h en $end
$var reg 5 l bin_out [4:0] $end
$var reg 5 m gray_out [4:0] $end
$var wire 5 n bin_next [4:0] $end
$var wire 5 o gray_next [4:0] $end
$upscope $end
$upscope $end
$scope module u_sync_r2w $end
$var wire 1 E wclk $end
$var wire 1 Q wrst_n_sync $end
$var wire 5 V rptr_gray_in [4:0] $end
$var reg 5 p rptr_gray_sync_out [4:0] $end
$var reg 10 q chain [9:0] $end
$upscope $end
$scope module u_sync_w2r $end
$var wire 1 L rclk $end
$var wire 1 R rrst_n_sync $end
$var wire 5 T wptr_gray_in [4:0] $end
$var reg 5 r wptr_gray_sync_out [4:0] $end
$var reg 10 s chain [9:0] $end
$upscope $end
$scope module u_fifomem $end
$var wire 1 E wclk $end
$var wire 1 Y wr_en_gated $end
$var wire 4 t wr_addr [3:0] $end
$var wire 8 G wr_data [7:0] $end
$var wire 1 L rclk $end
$var wire 1 Z rd_en_gated $end
$var wire 4 u rd_addr [3:0] $end
$var reg 8 v rd_data [7:0] $end
$var reg 1 w rd_valid $end
$upscope $end
$scope module u_bp $end
$var wire 1 E wclk $end
$var wire 1 Q wrst_n_sync $end
$var wire 5 K wr_occupancy [4:0] $end
$var reg 1 x almost_full $end
$var wire 1 J stall $end
$upscope $end
$upscope $end
$scope function xlnx_isim_covergroup_cg_fifo::new $end
$var reg 32 y this $end
$upscope $end
$scope function xlnx_isim_covergroup_cg_fifo::update $end
$var reg 32 y this $end
$upscope $end
$scope function xlnx_isim_covergroup_cg_fifo::xlnx_isim_covergroup_sample $end
$var reg 32 y this $end
$upscope $end
$scope task test_burst_overflow $end
$upscope $end
$scope task test_backpressure $end
$upscope $end
$scope task drain_fifo $end
$upscope $end
$scope task report_metrics $end
$upscope $end
$upscope $end
$enddefinitions $end
#0
$dumpvars
0!
0"
0#
0$
0%
b0 &
0'
0(
0)
1*
x+
bx ,
b0 -
b0 .
b0 /
b0 0
b0 1
b0 2
b0 3
b0 4
05
06
17
08
b0 9
b0 :
bx ;
0<
0=
0>
0?
0@
0A
b0 B
b0 C
0D
0E
0F
b0 G
0H
0I
0J
b0 K
0L
0M
bx N
xO
1P
0Q
0R
b0 S
b0 T
b0 U
b0 V
b0 W
b0 X
0Y
0Z
b0 [
b0 \
0]
0^
b0 _
b0 `
0a
b0 b
b0 c
b0 d
b0 e
b0 f
1g
0h
b0 i
b0 j
1k
b0 l
b0 m
b0 n
b0 o
b0 p
b0 q
b0 r
b0 s
b0 t
b0 u
bx v
xw
0x
b0 y
$end
#5000
1!
1E
#10000
0!
0E
#13500
1"
0+
1L
0O
0w
#15000
1!
1E
#20000
0!
0E
#25000
1!
1E
#27000
0"
0L
#30000
0!
0E
#35000
1!
1E
#40000
0!
0E
#40500
1"
1L
#45000
1!
1E
#50000
0!
0E
#54000
0"
0L
#55000
1!
1E
#60000
0!
0E
#65000
1!
1E
#67500
1"
1L
#70000
0!
0E
#75000
1!
1E
#80000
0!
0E
#81000
0"
0L
#85000
1!
1E
#90000
0!
0E
#94500
1"
1L
#95000
1!
1E
#100000
0!
1#
0<
1D
0E
#105000
1!
1E
b1 [
#108000
0"
0L
#110000
0!
0E
#115000
1!
1E
1Q
b11 [
#120000
0!
0E
#121500
1"
1L
b1 \
#125000
1!
1E
#130000
0!
0E
#135000
1!
0"
1E
0L
#140000
0!
0E
#145000
1!
1E
#148500
1"
1L
1R
b11 \
#150000
0!
0E
#155000
1!
1$
b1 &
1<
1E
1F
b1 G
1Y
1^
b1 _
b1 `
b1 e
b1 f
#160000
0!
0E
#162000
0"
0L
#165000
1!
b10 &
b1 -
b1 .
1E
b10 G
b1 K
b1 S
b1 T
b10 _
b11 `
b1 c
b1 d
b10 e
b11 f
b1 t
#170000
0!
0E
#175000
1!
b11 &
b10 -
b10 .
b1 1
b1 9
1E
b11 G
b10 K
b10 S
b11 T
b11 _
b10 `
b10 c
b11 d
b11 e
b10 f
b10 t
#175500
1"
1L
b11 s
#180000
0!
0E
#185000
1!
b100 &
b11 -
b11 .
b10 1
b10 9
1E
b100 G
b11 K
b11 S
b10 T
b100 _
b110 `
b11 c
b10 d
b100 e
b110 f
b11 t
#189000
0"
0L
#190000
0!
0E
#195000
1!
b101 &
b100 -
b100 .
b11 1
b11 9
1E
b101 G
b100 K
b100 S
b110 T
b101 _
b111 `
b100 c
b110 d
b101 e
b111 f
b100 t
#200000
0!
0E
#202500
1"
1L
b11 W
0k
b11 r
b1100110 s
#205000
1!
b110 &
b101 -
b101 .
b100 1
b100 9
1E
b110 G
b101 K
b101 S
b111 T
b110 _
b101 `
b101 c
b111 d
b110 e
b101 f
b101 t
#210000
0!
0E
#215000
1!
b111 &
b110 -
b110 .
b101 1
b101 9
1E
b111 G
b110 K
b110 S
b101 T
b111 _
b100 `
b110 c
b101 d
b111 e
b100 f
b110 t
#216000
0"
0L
#220000
0!
0E
#225000
1!
b1000 &
b111 -
b111 .
b110 1
b110 9
1E
b1000 G
b111 K
b111 S
b100 T
b1000 _
b1100 `
b111 c
b100 d
b1000 e
b1100 f
b111 t
#229500
1"
0*
1L
0P
b110 W
0g
0h
b110 r
b11000100 s
#230000
0!
0E
#235000
1!
b1001 &
b1000 -
b1000 .
b111 1
b111 9
1E
b1001 G
b1000 K
b1000 S
b1100 T
b1001 _
b1101 `
b1000 c
b1100 d
b1001 e
b1101 f
b1000 t
#240000
0!
0E
#243000
0"
0L
#245000
1!
b1010 &
b1001 -
b1001 .
b1000 1
b1000 9
1E
b1010 G
b1001 K
b1001 S
b1101 T
b1010 _
b1111 `
b1001 c
b1101 d
b1010 e
b1111 f
b1001 t
#250000
0!
0E
#255000
1!
b1011 &
b1010 -
b1010 .
b1001 1
b1001 9
1E
b1011 G
b1010 K
b1010 S
b1111 T
b1011 _
b1110 `
b1010 c
b1111 d
b1011 e
b1110 f
b1010 t
#256500
1"
07
1L
b100 W
b100 r
b10001111 s
#260000
0!
0E
#265000
1!
b1100 &
b1011 -
b1011 .
b1010 1
b1010 9
1E
b1100 G
b1011 K
b1011 S
b1110 T
b1100 _
b1010 `
b1011 c
b1110 d
b1100 e
b1010 f
b1011 t
#270000
0!
0"
0E
0L
#275000
1!
b1101 &
b1100 -
b1100 .
b1011 1
b1011 9
1E
b1101 G
b1100 K
b1100 S
b1010 T
b1101 _
b1011 `
b1100 c
b1010 d
b1101 e
b1011 f
b1100 t
#280000
0!
0E
#283500
1"
1L
b1111 W
b1111 r
b111101010 s
#285000
1!
b1110 &
b1101 -
b1101 .
b1100 1
b1100 9
1E
b1110 G
b1101 K
b1101 S
b1011 T
b1110 _
b1001 `
b1101 c
b1011 d
b1110 e
b1001 f
b1101 t
#290000
0!
0E
#295000
1!
b1111 &
b1110 -
b1110 .
b1101 1
b1101 9
1E
b1111 G
b1110 K
b1110 S
b1001 T
b1111 _
b1000 `
b1110 c
b1001 d
b1111 e
b1000 f
b1110 t
#297000
0"
0L
#300000
0!
0E
#305000
1!
b10000 &
1(
1)
b1111 -
b1111 .
b1110 1
b1110 9
1=
1E
b10000 G
1I
1J
b1111 K
b1111 S
b1000 T
b10000 _
b11000 `
1a
b1111 c
b1000 d
b10000 e
b11000 f
b1111 t
1x
#310000
0!
0E
#310500
1"
1L
b1010 W
b1010 r
b101001000 s
#315000
1!
b10001 &
1'
b10000 -
b10000 .
b1111 1
b1 3
16
18
b1111 9
0<
0=
1E
b10001 G
1H
b10000 K
b10000 S
b11000 T
0Y
1]
0^
b10000 _
b11000 `
1a
b10000 c
b11000 d
b10000 e
b11000 f
b0 t
#320000
0!
0E
#324000
0"
0L
#325000
1!
b10010 &
b10000 1
b1 2
15
b10000 9
1E
b10010 G
#330000
0!
0E
#335000
1!
b10011 &
1E
b10011 G
#337500
1"
1L
b1000 W
b1000 r
b100011000 s
#340000
0!
0E
#345000
1!
b10100 &
1E
b10100 G
#350000
0!
0E
#351000
0"
0L
#355000
1!
b10101 &
1E
b10101 G
#360000
0!
0E
#364500
1"
1L
b11000 W
b11000 r
b1100011000 s
#365000
1!
b10110 &
1E
b10110 G
#370000
0!
0E
#375000
1!
b10111 &
1E
b10111 G
#378000
0"
0L
#380000
0!
0E
#385000
1!
b11000 &
1E
b11000 G
#390000
0!
0E
#391500
1"
1L
#395000
1!
b11001 &
1E
b11001 G
#400000
0!
0E
#405000
1!
0"
b11010 &
1E
b11010 G
0L
#410000
0!
0E
#415000
1!
0$
0<
1E
0F
0^
#418500
1"
1%
1L
1M
1Z
1h
b1 i
b1 j
b1 n
b1 o
#420000
0!
0E
#425000
1!
1E
#430000
0!
0E
#432000
0"
0L
#435000
1!
1E
#440000
0!
0E
#445000
1!
1E
#445500
1"
1+
b1 ,
1L
b1 N
1O
b1 U
b1 V
b10 i
b11 j
b1 l
b1 m
b10 n
b11 o
b1 u
b1 v
1w
#450000
0!
0E
#455000
1!
1E
b1 q
#459000
0"
0L
#460000
0!
0E
#465000
1!
b1111 -
1E
b1111 K
b1 X
0a
b1 b
b1 p
b100001 q
#470000
0!
0E
#472500
1"
b10 ,
b1 /
b1 ;
1L
b10 N
b10 U
b11 V
b11 i
b10 j
b10 l
b11 m
b11 n
b10 o
b10 u
b10 v
#475000
1!
0'
b1111 9
0<
1E
0H
0]
0^
b100011 q
#480000
0!
0E
#485000
1!
b1110 -
05
1E
b1110 K
b11 X
b10 b
b11 p
b1100011 q
#486000
0"
0L
#490000
0!
0E
#495000
1!
b1110 9
1E
#499500
1"
b11 ,
b10 /
b10 ;
1L
b11 N
b11 U
b10 V
b100 i
b110 j
b11 l
b10 m
b100 n
b110 o
b11 u
b11 v
#500000
0!
0E
#505000
1!
1E
b1100010 q
#510000
0!
0E
#513000
0"
0L
#515000
1!
b1101 -
1E
b1101 K
b10 X
b11 b
b10 p
b1000010 q
#520000
0!
0E
#525000
1!
b1101 9
1E
#526500
1"
b100 ,
b11 /
b11 ;
1L
b100 N
b100 U
b110 V
b101 i
b111 j
b100 l
b110 m
b101 n
b111 o
b100 u
b100 v
#530000
0!
0E
#535000
1!
1E
b1000110 q
#540000
0!
0"
0E
0L
#545000
1!
b1100 -
1E
b1100 K
b110 X
b100 b
b110 p
b11000110 q
#550000
0!
0E
#553500
1"
b101 ,
b100 /
b100 ;
1L
b101 N
b101 U
b111 V
b110 i
b101 j
b101 l
b111 m
b110 n
b101 o
b101 u
b101 v
#555000
1!
b1100 9
1E
b11000111 q
#560000
0!
0E
#565000
1!
b1011 -
1E
b1011 K
b111 X
b101 b
b111 p
b11100111 q
#567000
0"
0L
#570000
0!
0E
#575000
1!
b1011 9
1E
#580000
0!
0E
#580500
1"
b110 ,
b101 /
b101 ;
1L
b110 N
b110 U
b101 V
b111 i
b100 j
b110 l
b101 m
b111 n
b100 o
b110 u
b110 v
#585000
1!
1E
b11100101 q
#590000
0!
0E
#594000
0"
0L
#595000
1!
b1010 -
1E
b1010 K
b101 X
b110 b
b101 p
b10100101 q
#600000
0!
0E
#605000
1!
0(
0)
b1010 9
1E
0I
0J
0x
#607500
1"
b111 ,
b110 /
b110 ;
1L
b111 N
b111 U
b100 V
b1000 i
b1100 j
b111 l
b100 m
b1000 n
b1100 o
b111 u
b111 v
#610000
0!
0E
#615000
1!
06
08
1E
b10100100 q
#620000
0!
0E
#621000
0"
0L
#625000
1!
b1001 -
1E
b1001 K
b100 X
b111 b
b100 p
b10000100 q
#630000
0!
0E
#634500
1"
b1000 ,
b111 /
b111 ;
1L
b1000 N
b1000 U
b1100 V
b1001 i
b1101 j
b1000 l
b1100 m
b1001 n
b1101 o
b1000 u
b1000 v
#635000
1!
b1001 9
1E
b10001100 q
#640000
0!
0E
#645000
1!
b1000 -
1E
b1000 K
b1100 X
b1000 b
b1100 p
b110001100 q
#648000
0"
0L
#650000
0!
0E
#655000
1!
b1000 9
1E
#660000
0!
0E
#661500
1"
b1001 ,
b1000 /
b1000 ;
1L
b1001 N
b1001 U
b1101 V
b1010 i
b1111 j
b1001 l
b1101 m
b1010 n
b1111 o
b1001 u
b1001 v
#665000
1!
1E
b110001101 q
#670000
0!
0E
#675000
1!
0"
b111 -
1E
b111 K
0L
b1101 X
b1001 b
b1101 p
b110101101 q
#680000
0!
0E
#685000
1!
b111 9
1E
#688500
1"
b1010 ,
b1001 /
b1001 ;
1L
b1010 N
b1010 U
b1111 V
b1011 i
b1110 j
b1010 l
b1111 m
b1011 n
b1110 o
b1010 u
b1010 v
#690000
0!
0E
#695000
1!
1E
b110101111 q
#700000
0!
0E
#702000
0"
0L
#705000
1!
b110 -
1E
b110 K
b1111 X
b1010 b
b1111 p
b111101111 q
#710000
0!
0E
#715000
1!
b110 9
1E
#715500
1"
b1011 ,
b1010 /
b1010 ;
1L
b1011 N
b1011 U
b1110 V
b1100 i
b1010 j
b1011 l
b1110 m
b1100 n
b1010 o
b1011 u
b1011 v
#720000
0!
0E
#725000
1!
1E
b111101110 q
#729000
0"
0L
#730000
0!
0E
#735000
1!
b101 -
1E
b101 K
b1110 X
b1011 b
b1110 p
b111001110 q
#740000
0!
0E
#742500
1"
b1100 ,
b1011 /
b1011 ;
1L
b1100 N
b1100 U
b1010 V
b1101 i
b1011 j
b1100 l
b1010 m
b1101 n
b1011 o
b1100 u
b1100 v
#745000
1!
b101 9
1E
b111001010 q
#750000
0!
0E
#755000
1!
b100 -
1E
b100 K
b1010 X
b1100 b
b1010 p
b101001010 q
#756000
0"
0L
#760000
0!
0E
#765000
1!
b100 9
1E
#769500
1"
b1101 ,
b1100 /
b1100 ;
1L
b1101 N
b1101 U
b1011 V
b1110 i
b1001 j
b1101 l
b1011 m
b1110 n
b1001 o
b1101 u
b1101 v
#770000
0!
0E
#775000
1!
1E
b101001011 q
#780000
0!
0E
#783000
0"
0L
#785000
1!
b11 -
1E
b11 K
b1011 X
b1101 b
b1011 p
b101101011 q
#790000
0!
0E
#795000
1!
b11 9
1E
#796500
1"
b1110 ,
b1101 /
b1101 ;
1L
b1110 N
b1110 U
b1001 V
b1111 i
b1000 j
b1110 l
b1001 m
b1111 n
b1000 o
b1110 u
b1110 v
#800000
0!
0E
#805000
1!
1E
b101101001 q
#810000
0!
0"
0E
0L
#815000
1!
b10 -
1E
b10 K
b1001 X
b1110 b
b1001 p
b100101001 q
#820000
0!
0E
#823500
1"
b1111 ,
b1110 /
b1110 ;
1L
b1111 N
b1111 U
b1000 V
b10000 i
b11000 j
1k
b1111 l
b1000 m
b10000 n
b11000 o
b1111 u
b1111 v
#825000
1!
b10 9
1E
b100101000 q
#830000
0!
0E
#835000
1!
b1 -
1E
b1 K
b1000 X
b1111 b
b1000 p
b100001000 q
#837000
0"
0L
#840000
0!
0E
#845000
1!
b1 9
1E
#850000
0!
0E
#850500
1"
1*
b10000 ,
b1111 /
b1111 ;
1L
b10000 N
1P
b10000 U
b11000 V
0Z
1g
0h
b10000 i
b11000 j
1k
b10000 l
b11000 m
b10000 n
b11000 o
b0 u
b10000 v
#855000
1!
1E
b100011000 q
#860000
0!
0E
#864000
0"
0L
#865000
1!
b0 -
1E
b0 K
b11000 X
b10000 b
b11000 p
b1100011000 q
#870000
0!
0E
#875000
1!
b0 9
1E
#877500
1"
0+
b10000 /
b1 4
17
b10000 ;
1L
0O
0w
#880000
0!
0E
#885000
1!
1E
#890000
0!
0E
#891000
0"
0L
#895000
1!
1E
#900000
0!
0E
#904500
1"
1L
#905000
1!
1E
#910000
0!
0E
#915000
1!
1E
#918000
0"
0L
#920000
0!
0E
#925000
1!
1E
#930000
0!
0E
#931500
1"
1L
#935000
1!
1E
#940000
0!
0E
#945000
1!
0"
1E
0L
#950000
0!
0E
#955000
1!
1E
#958500
1"
1L
#960000
0!
0E
#965000
1!
1E
#970000
0!
0E
#972000
0"
0L
#975000
1!
1E
#980000
0!
0E
#985000
1!
1E
#985500
1"
1L
#990000
0!
0E
#995000
1!
1E
#999000
0"
0L
#1000000
0!
0E
#1005000
1!
1E
#1010000
0!
0E
#1012500
1"
0%
1L
0M
0h
#1015000
1!
1E
#1020000
0!
0E
#1025000
1!
1E
#1026000
0"
0L
#1030000
0!
0E
#1035000
1!
1E
#1039500
1"
1L
#1040000
0!
0E
#1045000
1!
1$
b10100000 &
1<
1A
1E
1F
b10100000 G
1Y
1^
b10001 _
b11001 `
b10001 e
b11001 f
#1050000
0!
0E
#1053000
0"
0L
#1055000
1!
b10100001 &
b1 -
b10001 .
1E
b10100001 G
b1 K
b10001 S
b11001 T
b10010 _
b11011 `
b10001 c
b11001 d
b10010 e
b11011 f
b1 t
#1060000
0!
0E
#1065000
1!
b10100010 &
b10 -
b10010 .
b1 9
1E
b10100010 G
b10 K
b10010 S
b11011 T
b10011 _
b11010 `
b10010 c
b11011 d
b10011 e
b11010 f
b10 t
#1066500
1"
1%
b1 C
1L
1M
0h
b1100011011 s
#1070000
0!
0E
#1075000
1!
b10100011 &
b11 -
b10011 .
b10 9
1E
b10100011 G
b11 K
b10011 S
b11010 T
b10100 _
b11110 `
b10011 c
b11010 d
b10100 e
b11110 f
b11 t
#1080000
0!
0"
0E
0L
#1085000
1!
b10100100 &
b100 -
b10100 .
b11 9
1E
b10100100 G
b100 K
b10100 S
b11110 T
b10101 _
b11111 `
b10100 c
b11110 d
b10101 e
b11111 f
b100 t
#1090000
0!
0E
#1093500
1"
0%
b10 C
1L
0M
b11011 W
0h
0k
b11011 r
b1101111110 s
#1095000
1!
b10100101 &
b101 -
b10101 .
b100 9
1E
b10100101 G
b101 K
b10101 S
b11111 T
b10110 _
b11101 `
b10101 c
b11111 d
b10110 e
b11101 f
b101 t
#1100000
0!
0E
#1105000
1!
b10100110 &
b110 -
b10110 .
b101 9
1E
b10100110 G
b110 K
b10110 S
b11101 T
b10111 _
b11100 `
b10110 c
b11101 d
b10111 e
b11100 f
b110 t
#1107000
0"
0L
#1110000
0!
0E
#1115000
1!
b10100111 &
b111 -
b10111 .
b110 9
1E
b10100111 G
b111 K
b10111 S
b11100 T
b11000 _
b10100 `
b10111 c
b11100 d
b11000 e
b10100 f
b111 t
#1120000
0!
0E
#1120500
1"
0%
0*
b11 C
1L
0P
b11110 W
0g
0h
b11110 r
b1111011100 s
#1125000
1!
b10101000 &
b1000 -
b11000 .
b111 9
1E
b10101000 G
b1000 K
b11000 S
b10100 T
b11001 _
b10101 `
b11000 c
b10100 d
b11001 e
b10101 f
b1000 t
#1130000
0!
0E
#1134000
0"
0L
#1135000
1!
b10101001 &
b1001 -
b11001 .
b1000 9
1E
b10101001 G
b1001 K
b11001 S
b10101 T
b11010 _
b10111 `
b11001 c
b10101 d
b11010 e
b10111 f
b1001 t
#1140000
0!
0E
#1145000
1!
b10101010 &
b1010 -
b11010 .
b1001 9
1E
b10101010 G
b1010 K
b11010 S
b10111 T
b11011 _
b10110 `
b11010 c
b10111 d
b11011 e
b10110 f
b1010 t
#1147500
1"
0%
07
b100 C
1L
b11100 W
b11100 r
b1110010111 s
#1150000
0!
0E
#1155000
1!
b10101011 &
b1011 -
b11011 .
b1010 9
1E
b10101011 G
b1011 K
b11011 S
b10110 T
b11100 _
b10010 `
b11011 c
b10110 d
b11100 e
b10010 f
b1011 t
#1160000
0!
0E
#1161000
0"
0L
#1165000
1!
b10101100 &
b1100 -
b11100 .
b1011 9
1E
b10101100 G
b1100 K
b11100 S
b10010 T
b11101 _
b10011 `
b11100 c
b10010 d
b11101 e
b10011 f
b1100 t
#1170000
0!
0E
#1174500
1"
1%
b101 C
1L
1M
b10111 W
1Z
1h
b10001 i
b11001 j
b10001 n
b11001 o
b10111 r
b1011110010 s
#1175000
1!
b10101101 &
b1101 -
b11101 .
b1100 9
1E
b10101101 G
b1101 K
b11101 S
b10011 T
b11110 _
b10001 `
b11101 c
b10011 d
b11110 e
b10001 f
b1101 t
#1180000
0!
0E
#1185000
1!
b10101110 &
b1110 -
b11110 .
b1101 9
1E
b10101110 G
b1110 K
b11110 S
b10001 T
b11111 _
b10000 `
b11110 c
b10001 d
b11111 e
b10000 f
b1110 t
#1188000
0"
0L
#1190000
0!
0E
#1195000
1!
b10101111 &
1(
1)
b1111 -
b11111 .
b1110 9
1=
1E
b10101111 G
1I
1J
b1111 K
b11111 S
b10000 T
b0 _
b0 `
1a
b11111 c
b10000 d
b0 e
b0 f
b1111 t
1x
#1200000
0!
0E
#1201500
1"
0%
1+
b10100000 ,
1>
b110 C
1L
0M
b10100000 N
1O
b10001 U
b11001 V
b10010 W
0Z
0h
b10001 i
b11001 j
b10001 l
b11001 m
b10001 n
b11001 o
b10010 r
b1001010000 s
b1 u
b10100000 v
1w
#1205000
1!
b10110000 &
1'
b10000 -
b100000 .
b10 3
16
18
b1111 9
0<
0=
0>
1E
b10110000 G
1H
b10000 K
b0 S
b0 T
0Y
1]
0^
b0 _
b0 `
1a
b0 c
b0 d
b0 e
b0 f
b1100011001 q
b0 t
#1210000
0!
0E
#1215000
1!
0"
b10110001 &
b1111 -
b10 2
15
b10000 9
1E
b10110001 G
b1111 K
0L
b11001 X
0a
b10001 b
b11001 p
b1100111001 q
#1220000
0!
0E
#1225000
1!
b10110010 &
0'
b1111 9
1<
1>
1E
b10110010 G
0H
1Y
0]
1^
b1 _
b1 `
1a
b1 e
b1 f
#1228500
1"
0%
0+
b10001 /
b10100000 ;
0>
b111 C
1L
0O
b10000 W
b10000 r
b1000000000 s
0w
#1230000
0!
0E
#1235000
1!
b10110011 &
1'
b10000 -
b100001 .
05
0<
1E
b10110011 G
1H
b10000 K
b1 S
b1 T
0Y
1]
0^
b1 _
b1 `
1a
b1 c
b1 d
b1 e
b1 f
b1 t
#1240000
0!
0E
#1242000
0"
0L
#1245000
1!
b10110100 &
b11 2
15
b10000 9
1E
b10110100 G
#1250000
0!
0E
#1255000
1!
b10110101 &
1E
b10110101 G
#1255500
1"
0%
b1000 C
1L
b0 W
b0 r
b1 s
#1260000
0!
0E
#1265000
1!
b10110110 &
1E
b10110110 G
#1269000
0"
0L
#1270000
0!
0E
#1275000
1!
b10110111 &
1E
b10110111 G
#1280000
0!
0E
#1282500
1"
1%
b1001 C
1L
1M
b1 W
1Z
1h
b10010 i
b11011 j
b10010 n
b11011 o
b1 r
b100001 s
#1285000
1!
b10111000 &
1E
b10111000 G
#1290000
0!
0E
#1295000
1!
b10111001 &
1E
b10111001 G
#1296000
0"
0L
#1300000
0!
0E
#1305000
1!
b10111010 &
1E
b10111010 G
#1309500
1"
0%
1+
b10100001 ,
b1010 C
1L
0M
b10100001 N
1O
b10010 U
b11011 V
0Z
0h
b10010 i
b11011 j
b10010 l
b11011 m
b10010 n
b11011 o
b10 u
b10100001 v
1w
#1310000
0!
0E
#1315000
1!
b10111011 &
1E
b10111011 G
b1100111011 q
#1320000
0!
0E
#1323000
0"
0L
#1325000
1!
b10111100 &
b1111 -
1E
b10111100 G
b1111 K
b11011 X
0a
b10010 b
b11011 p
b1101111011 q
#1330000
0!
0E
#1335000
1!
b10111101 &
0'
b1111 9
1<
1>
1E
b10111101 G
0H
1Y
0]
1^
b10 _
b11 `
1a
b10 e
b11 f
#1336500
1"
0%
0+
b10010 /
b10100001 ;
0>
b1011 C
1L
0O
0w
#1340000
0!
0E
#1345000
1!
b10111110 &
1'
b10000 -
b100010 .
05
0<
1E
b10111110 G
1H
b10000 K
b10 S
b11 T
0Y
1]
0^
b10 _
b11 `
1a
b10 c
b11 d
b10 e
b11 f
b10 t
#1350000
0!
0"
0E
0L
#1355000
1!
b10111111 &
b100 2
15
b10000 9
1E
b10111111 G
#1360000
0!
0E
#1363500
1"
0%
b1100 C
1L
b100011 s
#1365000
1!
b11000000 &
1E
b11000000 G
#1370000
0!
0E
#1375000
1!
b11000001 &
1E
b11000001 G
#1377000
0"
0L
#1380000
0!
0E
#1385000
1!
b11000010 &
1E
b11000010 G
#1390000
0!
0E
#1390500
1"
1%
b1101 C
1L
1M
b11 W
1Z
1h
b10011 i
b11010 j
b10011 n
b11010 o
b11 r
b1100011 s
#1395000
1!
b11000011 &
1E
b11000011 G
#1400000
0!
0E
#1404000
0"
0L
#1405000
1!
b11000100 &
1E
b11000100 G
#1410000
0!
0E
#1415000
1!
b11000101 &
1E
b11000101 G
#1417500
1"
0%
1+
b10100010 ,
b1110 C
1L
0M
b10100010 N
1O
b10011 U
b11010 V
0Z
0h
b10011 i
b11010 j
b10011 l
b11010 m
b10011 n
b11010 o
b11 u
b10100010 v
1w
#1420000
0!
0E
#1425000
1!
b11000110 &
1E
b11000110 G
b1101111010 q
#1430000
0!
0E
#1431000
0"
0L
#1435000
1!
b11000111 &
b1111 -
1E
b11000111 G
b1111 K
b11010 X
0a
b10011 b
b11010 p
b1101011010 q
#1440000
0!
0E
#1444500
1"
0%
0+
b10011 /
b10100010 ;
b1111 C
1L
0O
0w
#1445000
1!
b11001000 &
0'
b1111 9
1<
1E
b11001000 G
0H
1Y
0]
1^
b11 _
b10 `
1a
b11 e
b10 f
#1450000
0!
0E
#1455000
1!
b11001001 &
1'
b10000 -
b100011 .
05
0<
1E
b11001001 G
1H
b10000 K
b11 S
b10 T
0Y
1]
0^
b11 _
b10 `
1a
b11 c
b10 d
b11 e
b10 f
b11 t
#1458000
0"
0L
#1460000
0!
0E
#1465000
1!
b11001010 &
b101 2
15
b10000 9
1E
b11001010 G
#1470000
0!
0E
#1471500
1"
0%
b10000 C
1L
b1100010 s
#1475000
1!
b11001011 &
1E
b11001011 G
#1480000
0!
0E
#1485000
1!
0"
b11001100 &
1E
b11001100 G
0L
#1490000
0!
0E
#1495000
1!
b11001101 &
1E
b11001101 G
#1498500
1"
1%
b10001 C
1L
1M
b10 W
1Z
1h
b10100 i
b11110 j
b10100 n
b11110 o
b10 r
b1000010 s
#1500000
0!
0E
